machinekit/piphat/steps.vcd
$date 2017-06-05 02:23:23 $end
$version piscope V1 $end
$timescale 1 us $end
$scope module top $end
$var wire 1 A 0 $end
$var wire 1 B 1 $end
$var wire 1 C 2 $end
$var wire 1 D 3 $end
$var wire 1 E 4 $end
$var wire 1 F 5 $end
$var wire 1 G 6 $end
$var wire 1 H 7 $end
$var wire 1 I 8 $end
$var wire 1 J 9 $end
$var wire 1 K 10 $end
$var wire 1 L 11 $end
$var wire 1 M 12 $end
$var wire 1 N 13 $end
$var wire 1 O 14 $end
$var wire 1 P 15 $end
$var wire 1 Q 16 $end
$var wire 1 R 17 $end
$var wire 1 S 18 $end
$var wire 1 T 19 $end
$var wire 1 U 20 $end
$var wire 1 V 21 $end
$var wire 1 W 22 $end
$var wire 1 X 23 $end
$var wire 1 Y 24 $end
$var wire 1 Z 25 $end
$var wire 1 a 26 $end
$var wire 1 b 27 $end
$var wire 1 c 28 $end
$var wire 1 d 29 $end
$var wire 1 e 30 $end
$var wire 1 f 31 $end
$upscope $end
$enddefinitions $end
#0
1A
1B
1C
1D
1E
1F
1G
1H
1I
0J
0K
0L
1M
0N
0O
1P
0Q
0R
0S
0T
0U
0V
0W
0X
0Y
0Z
0a
0b
0c
1d
0e
0f
#27090398
0M
#27109514
1M
#27164809
0M
#27182684
1M
#27242374
0M
#27260449
1M
#27316679
0M
#27317409
1M
#27389644
0M
#27390304
1M
#27460224
0M
#27460829
1M
#27542280
0M
#27542840
1M
#27620150
0M
#27620665
1M
#27620680
0M
#27637715
1M
#27693850
0M
#27694330
1M
#27694345
0M
#27711785
1M
#27767085
0M
#27767535
1M
#27767550
0M
#27787480
1M
#27842590
0M
#27843015
1M
#27843030
0M
#27843450
1M
#27914246
0M
#27914646
1M
#27914661
0M
#27915060
1M
#27994736
0M
#27995111
1M
#27995126
0M
#27995506
1M
#28063816
0M
#28064171
1M
#28064191
0M
#28064546
1M
#28064566
0M
#28079671
1M
#28137201
0M
#28137541
1M
#28137561
0M
#28137901
1M
#28137916
0M
#28155501
1M
#28212636
0M
#28212956
1M
#28212976
0M
#28213296
1M
#28213316
0M
#28229566
1M
#28284677
0M
#28284986
1M
#28285001
0M
#28285311
1M
#28285331
0M
#28301831
1M
#28357597
0M
#28357892
1M
#28357912
0M
#28358207
1M
#28358222
0M
#28358517
1M
#28429487
0M
#28429767
1M
#28429787
0M
#28430067
1M
#28430087
0M
#28430367
1M
#28501202
0M
#28501477
1M
#28501492
0M
#28501762
1M
#28501782
0M
#28502052
1M
#28573772
0M
#28574032
1M
#28574047
0M
#28574307
1M
#28574322
0M
#28574587
1M
#28574602
0M
#28590207
1M
#28647067
0M
#28647317
1M
#28647337
0M
#28647587
1M
#28647602
0M
#28647852
1M
#28647872
0M
#28664692
1M
#28721393
0M
#28721633
1M
#28721653
0M
#28721892
1M
#28721912
0M
#28722153
1M
#28722168
0M
#28737728
1M
#28793373
0M
#28793603
1M
#28793623
0M
#28793853
1M
#28793873
0M
#28794103
1M
#28794123
0M
#28794353
1M
#28869143
0M
#28869368
1M
#28869383
0M
#28869613
1M
#28869628
0M
#28869853
1M
#28869868
0M
#28870098
1M
#28941228
0M
#28941443
1M
#28941458
0M
#28941678
1M
#28941693
0M
#28941913
1M
#28941928
0M
#28942148
1M
#29015568
0M
#29015783
1M
#29015803
0M
#29016018
1M
#29016038
0M
#29016253
1M
#29016268
0M
#29016488
1M
#29087273
0M
#29087488
1M
#29087508
0M
#29087728
1M
#29087743
0M
#29087958
1M
#29087978
0M
#29088198
1M
#29158399
0M
#29158614
1M
#29158634
0M
#29158849
1M
#29158869
0M
#29159084
1M
#29159104
0M
#29159319
1M
#29233669
0M
#29233884
1M
#29233904
0M
#29234119
1M
#29234139
0M
#29234354
1M
#29234374
0M
#29234589
1M
#29306739
0M
#29306959
1M
#29306974
0M
#29307194
1M
#29307214
0M
#29307429
1M
#29307449
0M
#29307664
1M
#29381699
0M
#29381919
1M
#29381939
0M
#29382154
1M
#29382169
0M
#29382389
1M
#29382409
0M
#29382624
1M
#29454645
0M
#29454864
1M
#29454884
0M
#29455099
1M
#29455119
0M
#29455334
1M
#29455354
0M
#29455569
1M
#29529700
0M
#29529920
1M
#29529935
0M
#29530155
1M
#29530170
0M
#29530390
1M
#29530405
0M
#29530625
1M
#29601725
0M
#29601945
1M
#29601960
0M
#29602180
1M
#29602195
0M
#29602415
1M
#29602430
0M
#29602650
1M
#29677795
0M
#29678015
1M
#29678030
0M
#29678250
1M
#29678265
0M
#29678485
1M
#29678500
0M
#29678720
1M
#29755035
0M
#29755255
1M
#29755270
0M
#29755490
1M
#29755505
0M
#29755720
1M
#29755740
0M
#29755960
1M
#29831720
0M
#29831940
1M
#29831955
0M
#29832175
1M
#29832190
0M
#29832410
1M
#29832425
0M
#29832645
1M
#29939476
0M
#29939696
1M
#29939716
0M
#29939931
1M
#29939946
0M
#29940166
1M
#29940186
0M
#29940401
1M
#30025321
0M
#30025541
1M
#30025556
0M
#30025776
1M
#30025791
0M
#30026011
1M
#30026026
0M
#30026246
1M
#30101446
0M
#30101661
1M
#30101681
0M
#30101896
1M
#30101916
0M
#30102131
1M
#30102151
0M
#30102371
1M
#30174811
0M
#30175026
1M
#30175046
0M
#30175261
1M
#30175276
0M
#30175496
1M
#30175516
0M
#30175731
1M
#30252632
0M
#30252851
1M
#30252866
0M
#30253086
1M
#30253101
0M
#30253321
1M
#30253336
0M
#30253556
1M
#30325342
0M
#30325562
1M
#30325577
0M
#30325797
1M
#30325812
0M
#30326032
1M
#30326047
0M
#30326267
1M
#30402527
0M
#30402747
1M
#30402762
0M
#30402982
1M
#30402997
0M
#30403217
1M
#30403237
0M
#30403452
1M
#30476327
0M
#30476547
1M
#30476567
0M
#30476782
1M
#30476802
0M
#30477022
1M
#30477037
0M
#30477257
1M
#30553632
0M
#30553852
1M
#30553867
0M
#30554087
1M
#30554107
0M
#30554322
1M
#30554342
0M
#30554562
1M
#30627217
0M
#30627432
1M
#30627452
0M
#30627672
1M
#30627687
0M
#30627907
1M
#30627922
0M
#30628142
1M
#30705288
0M
#30705507
1M
#30705522
0M
#30705738
1M
#30705758
0M
#30705978
1M
#30705993
0M
#30706213
1M
#30781773
0M
#30781993
1M
#30782008
0M
#30782223
1M
#30782243
0M
#30782463
1M
#30782478
0M
#30782698
1M
#30860558
0M
#30860773
1M
#30860793
0M
#30861008
1M
#30861028
0M
#30861243
1M
#30861263
0M
#30861483
1M
#30932233
0M
#30932453
1M
#30932468
0M
#30932688
1M
#30932703
0M
#30932923
1M
#30932938
0M
#30933158
1M
#31019218
0M
#31019438
1M
#31019453
0M
#31019673
1M
#31019693
0M
#31019908
1M
#31019928
0M
#31020143
1M
#31093673
0M
#31093893
1M
#31093908
0M
#31094128
1M
#31094143
0M
#31094363
1M
#31094378
0M
#31094598
1M
#31168304
0M
#31168524
1M
#31168539
0M
#31168759
1M
#31168774
0M
#31168994
1M
#31169009
0M
#31169229
1M
#31242144
0M
#31242364
1M
#31242379
0M
#31242594
1M
#31242614
0M
#31242829
1M
#31242849
0M
#31243069
1M
#31319539
0M
#31319759
1M
#31319774
0M
#31319994
1M
#31320009
0M
#31320229
1M
#31320244
0M
#31320464
1M
#31401634
0M
#31401849
1M
#31401869
0M
#31402084
1M
#31402104
0M
#31402324
1M
#31402339
0M
#31402559
1M
#31475180
0M
#31475399
1M
#31475419
0M
#31475634
1M
#31475654
0M
#31475874
1M
#31475889
0M
#31476110
1M
#31548225
0M
#31548445
1M
#31548460
0M
#31548680
1M
#31548695
0M
#31548915
1M
#31548930
0M
#31549150
1M
#31630810
0M
#31631030
1M
#31631045
0M
#31631265
1M
#31631280
0M
#31631500
1M
#31631515
0M
#31631735
1M
#31705260
0M
#31705480
1M
#31705495
0M
#31705715
1M
#31705730
0M
#31705950
1M
#31705965
0M
#31706185
1M
#31781595
0M
#31781815
1M
#31781830
0M
#31782050
1M
#31782065
0M
#31782285
1M
#31782300
0M
#31782520
1M
#31861605
0M
#31861820
1M
#31861840
0M
#31862055
1M
#31862075
0M
#31862290
1M
#31862310
0M
#31862525
1M
#31944506
0M
#31944726
1M
#31944741
0M
#31944961
1M
#31944976
0M
#31945196
1M
#31945211
0M
#31945431
1M
#32016756
0M
#32016976
1M
#32016991
0M
#32017206
1M
#32017226
0M
#32017446
1M
#32017461
0M
#32017681
1M
#32091201
0M
#32091421
1M
#32091436
0M
#32091656
1M
#32091671
0M
#32091891
1M
#32091911
0M
#32092126
1M
#32165696
0M
#32165916
1M
#32165931
0M
#32166151
1M
#32166171
0M
#32166386
1M
#32166406
0M
#32166621
1M
#32237861
0M
#32238081
1M
#32238096
0M
#32238311
1M
#32238331
0M
#32238551
1M
#32238566
0M
#32238786
1M
#32310177
0M
#32310397
1M
#32310412
0M
#32310632
1M
#32310647
0M
#32310867
1M
#32310882
0M
#32311102
1M
#32392512
0M
#32392732
1M
#32392747
0M
#32392967
1M
#32392982
0M
#32393202
1M
#32393217
0M
#32393437
1M
#32467982
0M
#32468202
1M
#32468217
0M
#32468437
1M
#32468452
0M
#32468672
1M
#32468687
0M
#32468907
1M
#32547957
0M
#32548172
1M
#32548192
0M
#32548407
1M
#32548427
0M
#32548642
1M
#32548657
0M
#32548877
1M
#32620227
0M
#32620442
1M
#32620462
0M
#32620677
1M
#32620697
0M
#32620917
1M
#32620932
0M
#32621147
1M
#32703533
0M
#32703753
1M
#32703768
0M
#32703988
1M
#32704003
0M
#32704218
1M
#32704238
0M
#32704458
1M
#32776338
0M
#32776558
1M
#32776573
0M
#32776793
1M
#32776808
0M
#32777028
1M
#32777043
0M
#32777263
1M
#32852528
0M
#32852748
1M
#32852763
0M
#32852983
1M
#32852998
0M
#32853218
1M
#32853233
0M
#32853453
1M
#32928398
0M
#32928618
1M
#32928633
0M
#32928853
1M
#32928868
0M
#32929088
1M
#32929103
0M
#32929323
1M
#33034513
0M
#33034728
1M
#33034748
0M
#33034963
1M
#33034983
0M
#33035198
1M
#33035218
0M
#33035433
1M
#33126754
0M
#33126969
1M
#33126989
0M
#33127204
1M
#33127224
0M
#33127439
1M
#33127459
0M
#33127679
1M
#33201924
0M
#33202139
1M
#33202159
0M
#33202374
1M
#33202394
0M
#33202609
1M
#33202629
0M
#33202844
1M
#33276274
0M
#33276494
1M
#33276509
0M
#33276729
1M
#33276744
0M
#33276964
1M
#33276979
0M
#33277199
1M
#33349244
0M
#33349464
1M
#33349479
0M
#33349699
1M
#33349714
0M
#33349934
1M
#33349949
0M
#33350169
1M
#33432034
0M
#33432254
1M
#33432269
0M
#33432489
1M
#33432504
0M
#33432724
1M
#33432739
0M
#33432959
1M
#33505365
0M
#33505585
1M
#33505600
0M
#33505820
1M
#33505835
0M
#33506055
1M
#33506070
0M
#33506290
1M
#33579000
0M
#33579220
1M
#33579235
0M
#33579455
1M
#33579470
0M
#33579690
1M
#33579705
0M
#33579925
1M
#33655645
0M
#33655865
1M
#33655880
0M
#33656100
1M
#33656115
0M
#33656335
1M
#33656355
0M
#33656570
1M
#33732385
0M
#33732605
1M
#33732620
0M
#33732835
1M
#33732855
0M
#33733075
1M
#33733090
0M
#33733310
1M
#33803325
0M
#33803540
1M
#33803560
0M
#33803780
1M
#33803795
0M
#33804010
1M
#33804030
0M
#33804250
1M
#33875616
0M
#33875836
1M
#33875851
0M
#33876071
1M
#33876086
0M
#33876306
1M
#33876321
0M
#33876540
1M
#33947536
0M
#33947756
1M
#33947771
0M
#33947991
1M
#33948006
0M
#33948226
1M
#33948246
0M
#33948461
1M
#34020071
0M
#34020291
1M
#34020306
0M
#34020526
1M
#34020541
0M
#34020761
1M
#34020776
0M
#34020996
1M
#34095131
0M
#34095351
1M
#34095366
0M
#34095586
1M
#34095606
0M
#34095821
1M
#34095836
0M
#34096056
1M
#34168531
0M
#34168751
1M
#34168766
0M
#34168986
1M
#34169001
0M
#34169221
1M
#34169236
0M
#34169456
1M
#34251682
0M
#34251901
1M
#34251916
0M
#34252136
1M
#34252151
0M
#34252372
1M
#34252387
0M
#34252606
1M
#34326517
0M
#34326737
1M
#34326752
0M
#34326967
1M
#34326987
0M
#34327207
1M
#34327222
0M
#34327442
1M
#34411102
0M
#34411322
1M
#34411337
0M
#34411557
1M
#34411572
0M
#34411792
1M
#34411812
0M
#34412027
1M
#34491232
0M
#34491452
1M
#34491467
0M
#34491687
1M
#34491707
0M
#34491927
1M
#34491942
0M
#34492162
1M
#34572332
0M
#34572562
1M
#34572577
0M
#34572807
1M
#34572822
0M
#34573052
1M
#34573067
0M
#34573297
1M
#34649823
0M
#34650058
1M
#34650078
0M
#34650312
1M
#34650332
0M
#34650567
1M
#34650582
0M
#34667747
1M
#34722688
0M
#34722933
1M
#34722948
0M
#34723193
1M
#34723213
0M
#34723458
1M
#34723473
0M
#34741303
1M
#34798328
0M
#34798583
1M
#34798598
0M
#34798853
1M
#34798873
0M
#34799128
1M
#34799143
0M
#34817573
1M
#34874188
0M
#34874453
1M
#34874468
0M
#34874733
1M
#34874753
0M
#34875018
1M
#34875033
0M
#34893408
1M
#34952268
0M
#34952543
1M
#34952558
0M
#34952833
1M
#34952853
0M
#34953128
1M
#35024428
0M
#35024714
1M
#35024729
0M
#35025019
1M
#35025034
0M
#35025323
1M
#35104429
0M
#35104729
1M
#35104749
0M
#35105049
1M
#35105064
0M
#35105364
1M
#35180774
0M
#35181089
1M
#35181104
0M
#35181419
1M
#35181434
0M
#35198859
1M
#35255214
0M
#35255544
1M
#35255559
0M
#35255889
1M
#35255904
0M
#35271779
1M
#35328819
0M
#35329164
1M
#35329179
0M
#35329524
1M
#35329539
0M
#35344754
1M
#35404144
0M
#35404504
1M
#35404519
0M
#35404884
1M
#35478965
0M
#35479340
1M
#35479360
0M
#35479740
1M
#35555970
0M
#35556370
1M
#35556390
0M
#35556790
1M
#35629655
0M
#35630080
1M
#35630095
0M
#35630525
1M
#35704640
0M
#35705090
1M
#35705110
0M
#35722225
1M
#35777910
0M
#35778395
1M
#35778415
0M
#35795135
1M
#35851176
0M
#35851695
1M
#35851710
0M
#35869141
1M
#35924131
0M
#35924686
1M
#35995976
0M
#35996581
1M
#36071301
0M
#36071956
1M
#36178931
0M
#36179646
1M
#36253027
0M
#36269202
1M
#36344357
0M
#36362567
1M
#36425697
0M
#36442377
1M
